{
  "result": [
    {
      "_id": "5f651a3153ec0744fb5386aa",
      "name": "Kystybyi with potatoes",
      "description": "Traditionally, kystybyi were cooked with millet porridge or rice with raisins, as well as pumpkin. Potatoes appeared in them only in the century before last - but now it is the most popular filling.",
      "type": "snack",
      "portion": 5,
      "time": 30,
      "likes": 0,
      "kcal": 587,
      "mainImg": "https://i.imgur.com/NOTp8Fa.png",
      "instruction": [
        {
          "img": "https://eda.ru/img/eda/c434x295i/s2.eda.ru/StaticContent/Photos/120214141717/131008104725/p_O.jpg",
          "description": "Sift flour, add 8 grams of salt and gradually pouring in 150 ml of water, knead the dough. Let it rest for at least a quarter of an hour, and then roll it out with a long rolling pin on a floured table to a thickness of about 2 mm. To make the dough evenly thin, you need to turn it over, or you can also rotate it around a rolling pin in the air like a rag."
        }
      ],
      "ingredients": [{ "name": "Potatoes", "amount": 500 }],
      "timeInDay": "Morning"
    },
    {
      "_id": "5f65274a225d0ea8ea54e986",
      "name": "Echpochmaks",
      "description": "Echpochmaks, brilliant Tatar pies-triangles.",
      "type": "pastries and desserts",
      "portion": 4,
      "time": 180,
      "likes": 0,
      "kcal": 1037,
      "mainImg": "https://i.imgur.com/EW2udHU.png",
      "instruction": [
        {
          "img": "https://eda.ru/img/eda/c434x295i/s1.eda.ru/StaticContent/Photos/120131082618/170530132915/p_O.jpg",
          "description": "Pour yeast and sugar in warm milk, stir well and squeeze for a couple of minutes until the yeast is activated."
        }
      ],
      "ingredients": [{ "name": "Potatoes", "amount": 500 }],
      "timeInDay": "Lanch"
    }
  ]
}
