<?xml version="1.0" encoding="utf-8"?>
<!-- Generator: Adobe Illustrator 21.0.0, SVG Export Plug-In . SVG Version: 6.00 Build 0)  -->
<svg version="1.1" id="Слой_1" xmlns="http://www.w3.org/2000/svg" xmlns:xlink="http://www.w3.org/1999/xlink" x="0px" y="0px"
	 viewBox="0 0 18.6 28.2" style="enable-background:new 0 0 18.6 28.2;" xml:space="preserve">
<style type="text/css">
	.st0{fill:#31B524;}
</style>
<g>
	<g>
		<path class="st0" d="M0,0l0,14.1h18.6c0,0-1.6-0.2-3.8-1.9c-2.2-1.7-3.5-4.9-5.6-7.6C5.6,0,0,0,0,0z"/>
		<path class="st0" d="M0,14.1l0,14.1c0,0,5.6,0,9.2-4.6c2.1-2.7,3.4-5.9,5.6-7.6c2.3-1.7,3.8-1.9,3.8-1.9H0z"/>
	</g>
</g>
</svg>
